{"content":[{"id":"2605181902104495","fundNo":"S85784","fundName":"宁波同德源余策略壹期创业投资合伙企业（有限合伙）","managerName":"安徽源余私募基金管理有限公司","managerType":"受托管理","workingState":"正在运作","putOnRecordDate":1779062400000,"lastQuarterUpdate":false,"isDeputeManage":"是","url":"2605181902104495.html","establishDate":1776384000000,"managerUrl":"../manager/2210141456107953.html","mandatorName":"上海浦东发展银行股份有限公司","managersInfo":[{"managerId":2210141456107953,"managerUrl":"../manager/2210141456107953.html","managerName":"安徽源余私募基金管理有限公司"}]},{"id":"2605181902103437","fundNo":"SAAB57","fundName":"远惟伯乐FOF2号私募证券投资基金","managerName":"北京远惟投资管理有限公司","managerType":"受托管理","workingState":"正在运作","putOnRecordDate":1779062400000,"lastQuarterUpdate":false,"isDeputeManage":"是","url":"2605181902103437.html","establishDate":1778544000000,"managerUrl":"../manager/101000031511.html","mandatorName":"中信证券股份有限公司","managersInfo":[{"managerId":101000031511,"managerUrl":"../manager/101000031511.html","managerName":"北京远惟投资管理有限公司"}]},{"id":"2605181902102812","fundNo":"SAAB83","fundName":"东谷星原私募证券投资基金","managerName":"海南东谷私募基金管理中心（有限合伙）","managerType":"受托管理","workingState":"正在运作","putOnRecordDate":1779062400000,"lastQuarterUpdate":false,"isDeputeManage":"是","url":"2605181902102812.html","establishDate":1778630400000,"managerUrl":"../manager/2109241557107589.html","mandatorName":"招商证券股份有限公司","managersInfo":[{"managerId":2109241557107589,"managerUrl":"../manager/2109241557107589.html","managerName":"海南东谷私募基金管理中心（有限合伙）"}]},{"id":"2605181902104725","fundNo":"SAAE23","fundName":"苏州丙午聚薪创业投资合伙企业（有限合伙）","managerName":"深圳市银卓私募创业投资基金管理有限公司","managerType":"受托管理","workingState":"正在运作","putOnRecordDate":1779062400000,"lastQuarterUpdate":false,"isDeputeManage":"是","url":"2605181902104725.html","establishDate":1776038400000,"managerUrl":"../manager/2102181702100411.html","mandatorName":"兴业银行股份有限公司","managersInfo":[{"managerId":2102181702100411,"managerUrl":"../manager/2102181702100411.html","managerName":"深圳市银卓私募创业投资基金管理有限公司"}]},{"id":"2605181902102057","fundNo":"SAAF48","fundName":"鸣熙沪港深红利精选20号私募证券投资基金","managerName":"上海鸣熙资产管理有限公司","managerType":"受托管理","workingState":"正在运作","putOnRecordDate":1779062400000,"lastQuarterUpdate":false,"isDeputeManage":"是","url":"2605181902102057.html","establishDate":1778544000000,"managerUrl":"../manager/101000039347.html","mandatorName":"招商证券股份有限公司","managersInfo":[{"managerId":101000039347,"managerUrl":"../manager/101000039347.html","managerName":"上海鸣熙资产管理有限公司"}]},{"id":"2605181902104783","fundNo":"SAAL40","fundName":"青岛海星智航私募股权投资基金合伙企业（有限合伙）","managerName":"北京慧德福瑞投资管理有限公司","managerType":"受托管理","workingState":"正在运作","putOnRecordDate":1779062400000,"lastQuarterUpdate":false,"isDeputeManage":"","url":"2605181902104783.html","establishDate":1778112000000,"managerUrl":"../manager/1703231010103111.html","mandatorName":"","managersInfo":[{"managerId":1703231010103111,"managerUrl":"../manager/1703231010103111.html","managerName":"北京慧德福瑞投资管理有限公司"}]},{"id":"2605181902103785","fundNo":"SAAV56","fundName":"嘉兴人合红鸢股权投资合伙企业（有限合伙）","managerName":"新余人合创新投资管理中心（有限合伙）","managerType":"受托管理","workingState":"正在运作","putOnRecordDate":1779062400000,"lastQuarterUpdate":false,"isDeputeManage":"是","url":"2605181902103785.html","establishDate":1777420800000,"managerUrl":"../manager/1702071153102357.html","mandatorName":"浙商银行股份有限公司","managersInfo":[{"managerId":1702071153102357,"managerUrl":"../manager/1702071153102357.html","managerName":"新余人合创新投资管理中心（有限合伙）"}]},{"id":"2605181902103298","fundNo":"SABE61","fundName":"于翼东方积庆A私募证券投资基金","managerName":"上海于翼资产管理合伙企业（有限合伙）","managerType":"受托管理","workingState":"正在运作","putOnRecordDate":1779062400000,"lastQuarterUpdate":false,"isDeputeManage":"是","url":"2605181902103298.html","establishDate":1778544000000,"managerUrl":"../manager/101000051620.html","mandatorName":"国泰海通证券股份有限公司","managersInfo":[{"managerId":101000051620,"managerUrl":"../manager/101000051620.html","managerName":"上海于翼资产管理合伙企业（有限合伙）"}]},{"id":"2605181902104616","fundNo":"SABF14","fundName":"红石致远（晋江）创业投资合伙企业（有限合伙）","managerName":"红石厚峰私募基金管理（武汉）有限公司","managerType":"受托管理","workingState":"正在运作","putOnRecordDate":1779062400000,"lastQuarterUpdate":false,"isDeputeManage":"是","url":"2605181902104616.html","establishDate":1777248000000,"managerUrl":"../manager/2211081026107231.html","mandatorName":"招商银行股份有限公司","managersInfo":[{"managerId":2211081026107231,"managerUrl":"../manager/2211081026107231.html","managerName":"红石厚峰私募基金管理（武汉）有限公司"}]},{"id":"2605181902101480","fundNo":"SABK80","fundName":"和元达远航一号私募证券投资基金","managerName":"广州和元达量化私募证券投资管理有限公司","managerType":"受托管理","workingState":"正在运作","putOnRecordDate":1779062400000,"lastQuarterUpdate":false,"isDeputeManage":"是","url":"2605181902101480.html","establishDate":1778198400000,"managerUrl":"../manager/101000052311.html","mandatorName":"中信证券股份有限公司","managersInfo":[{"managerId":101000052311,"managerUrl":"../manager/101000052311.html","managerName":"广州和元达量化私募证券投资管理有限公司"}]},{"id":"2605181902103240","fundNo":"SABZ13","fundName":"安远梵歌一号私募证券投资基金","managerName":"北京安远私募基金管理有限公司","managerType":"受托管理","workingState":"正在运作","putOnRecordDate":1779062400000,"lastQuarterUpdate":false,"isDeputeManage":"是","url":"2605181902103240.html","establishDate":1776988800000,"managerUrl":"../manager/2204011351101957.html","mandatorName":"中信证券股份有限公司","managersInfo":[{"managerId":2204011351101957,"managerUrl":"../manager/2204011351101957.html","managerName":"北京安远私募基金管理有限公司"}]},{"id":"2605180918105181","fundNo":"SACC33","fundName":"汇迪全球配置私募证券投资基金","managerName":"深圳汇迪私募证券基金管理有限公司","managerType":"受托管理","workingState":"正在运作","putOnRecordDate":1779062400000,"lastQuarterUpdate":false,"isDeputeManage":"是","url":"2605180918105181.html","establishDate":1778803200000,"managerUrl":"../manager/101000034632.html","mandatorName":"国泰海通证券股份有限公司","managersInfo":[{"managerId":101000034632,"managerUrl":"../manager/101000034632.html","managerName":"深圳汇迪私募证券基金管理有限公司"}]},{"id":"2605181357106938","fundNo":"SACK38","fundName":"恒业资本-庐山1号私募证券投资基金","managerName":"北京恒业智略投资管理有限公司","managerType":"受托管理","workingState":"正在运作","putOnRecordDate":1779062400000,"lastQuarterUpdate":false,"isDeputeManage":"是","url":"2605181357106938.html","establishDate":1777420800000,"managerUrl":"../manager/1612161353108454.html","mandatorName":"招商证券股份有限公司","managersInfo":[{"managerId":1612161353108454,"managerUrl":"../manager/1612161353108454.html","managerName":"北京恒业智略投资管理有限公司"}]},{"id":"2605181902102512","fundNo":"SACT53","fundName":"江煦臻选对冲五号私募证券投资基金","managerName":"上海江煦投资管理有限公司","managerType":"受托管理","workingState":"正在运作","putOnRecordDate":1779062400000,"lastQuarterUpdate":false,"isDeputeManage":"是","url":"2605181902102512.html","establishDate":1778630400000,"managerUrl":"../manager/101000030394.html","mandatorName":"国泰海通证券股份有限公司","managersInfo":[{"managerId":101000030394,"managerUrl":"../manager/101000030394.html","managerName":"上海江煦投资管理有限公司"}]},{"id":"2605180846105342","fundNo":"SACW02","fundName":"榕策橡树一号私募证券投资基金","managerName":"宁波榕策私募基金管理有限公司","managerType":"受托管理","workingState":"正在运作","putOnRecordDate":1779062400000,"lastQuarterUpdate":false,"isDeputeManage":"是","url":"2605180846105342.html","establishDate":1779062400000,"managerUrl":"../manager/101000046667.html","mandatorName":"招商证券股份有限公司","managersInfo":[{"managerId":101000046667,"managerUrl":"../manager/101000046667.html","managerName":"宁波榕策私募基金管理有限公司"}]},{"id":"2605181902102766","fundNo":"SACY42","fundName":"瑞桐铭睿精选一号私募证券投资基金","managerName":"瑞桐（杭州）私募基金管理有限公司","managerType":"受托管理","workingState":"正在运作","putOnRecordDate":1779062400000,"lastQuarterUpdate":false,"isDeputeManage":"是","url":"2605181902102766.html","establishDate":1778544000000,"managerUrl":"../manager/1807030904107580.html","mandatorName":"国泰海通证券股份有限公司","managersInfo":[{"managerId":1807030904107580,"managerUrl":"../manager/1807030904107580.html","managerName":"瑞桐（杭州）私募基金管理有限公司"}]},{"id":"2605181357108970","fundNo":"SADB94","fundName":"金锝仁贤36号私募证券投资基金","managerName":"上海金锝私募基金管理有限公司","managerType":"受托管理","workingState":"正在运作","putOnRecordDate":1779062400000,"lastQuarterUpdate":false,"isDeputeManage":"是","url":"2605181357108970.html","establishDate":1778457600000,"managerUrl":"../manager/101000003739.html","mandatorName":"招商银行股份有限公司","managersInfo":[{"managerId":101000003739,"managerUrl":"../manager/101000003739.html","managerName":"上海金锝私募基金管理有限公司"}]},{"id":"2605181357106872","fundNo":"SADG93","fundName":"富华金选CTA1号私募证券投资基金","managerName":"北京富华资信私募基金管理有限公司","managerType":"受托管理","workingState":"正在运作","putOnRecordDate":1779062400000,"lastQuarterUpdate":false,"isDeputeManage":"是","url":"2605181357106872.html","establishDate":1778112000000,"managerUrl":"../manager/2008211022117624.html","mandatorName":"中国国际金融股份有限公司","managersInfo":[{"managerId":2008211022117624,"managerUrl":"../manager/2008211022117624.html","managerName":"北京富华资信私募基金管理有限公司"}]},{"id":"2605181902102211","fundNo":"SADM90","fundName":"知行通达隆盛汇智68号私募证券投资基金","managerName":"深圳知行通达私募证券基金管理合伙企业（有限合伙）","managerType":"受托管理","workingState":"正在运作","putOnRecordDate":1779062400000,"lastQuarterUpdate":false,"isDeputeManage":"是","url":"2605181902102211.html","establishDate":1778544000000,"managerUrl":"../manager/2104142040107024.html","mandatorName":"华泰证券股份有限公司","managersInfo":[{"managerId":2104142040107024,"managerUrl":"../manager/2104142040107024.html","managerName":"深圳知行通达私募证券基金管理合伙企业（有限合伙）"}]},{"id":"2605181902102273","fundNo":"SADS76","fundName":"嘉合杉升钻选CTA一号私募证券投资基金","managerName":"杭州嘉合杉升私募基金管理有限公司","managerType":"受托管理","workingState":"正在运作","putOnRecordDate":1779062400000,"lastQuarterUpdate":false,"isDeputeManage":"是","url":"2605181902102273.html","establishDate":1778544000000,"managerUrl":"../manager/2208241450107179.html","mandatorName":"中国国际金融股份有限公司","managersInfo":[{"managerId":2208241450107179,"managerUrl":"../manager/2208241450107179.html","managerName":"杭州嘉合杉升私募基金管理有限公司"}]}],"totalElements":243479,"last":false,"totalPages":12174,"sort":null,"first":true,"numberOfElements":20,"size":20,"number":0}
